graf_10_3.txt 0.0 1 1300
graf_10_5.txt 0.0 12 1885
graf_10_6.txt 0.02 374 2000
graf_12_3.txt 0.0 1 1422
graf_12_5.txt 0.0 171 2219
graf_12_6.txt 0.0 401 2533
graf_12_9.txt 0.47 49000 3437
graf_13_9.txt 0.8 116000 3700
graf_15_4.txt 0.0 502 2547
graf_15_5.txt 0.03 1000 2892
graf_15_6.txt 0.05 4000 3353
graf_15_8.txt 1.8 160000 3984
graf_15_12.txt 103 21000000 5380
graf_15_14.txt 5700 1300000000 5578
graf_17_10.txt 78 18000000 5415

